MICOM EpiData Workshop 2025 – day1-afternoon
…
Selecting columns with select()

The select() function is used to pick specific columns from your dataset.

select(cases_df, time_value, raw_cases)  # Select the 'time_value' and 'raw_cases' columns

# A tibble: 93 × 2
   time_value raw_cases
   <date>         <dbl>
 1 2022-03-01      4310
 2 2022-03-01      1231
 3 2022-03-01      1487
 4 2022-03-02      7044
 5 2022-03-02      2243
 6 2022-03-02      1889
 7 2022-03-03      7509
 8 2022-03-03      2377
 9 2022-03-03      2390
10 2022-03-04      3586
# ℹ 83 more rows

Selecting columns with select()

You can exclude columns by prefixing the column names with a minus sign -.

select(cases_df, -geo_value)  # Exclude the 'geo_value' column from the dataset

# A tibble: 93 × 2
   time_value raw_cases
   <date>         <dbl>
 1 2022-03-01      4310
 2 2022-03-01      1231
 3 2022-03-01      1487
 4 2022-03-02      7044
 5 2022-03-02      2243
 6 2022-03-02      1889
 7 2022-03-03      7509
 8 2022-03-03      2377
 9 2022-03-03      2390
10 2022-03-04      3586
# ℹ 83 more rows
…
 Artwork by @allison_horst

Subsetting rows with filter()

The filter() function allows you to subset rows that meet specific conditions.

Conditions regard column values, such as filtering for only NC or cases higher than some threshold.

This enables you to narrow down your dataset to focus on relevant data.

filter(cases_df, geo_value == "nc", raw_cases > 500)  # Filter for NC with raw daily cases > 500

# A tibble: 22 × 3
   geo_value time_value raw_cases
   <chr>     <date>         <dbl>
 1 nc        2022-03-01      1231
 2 nc        2022-03-02      2243
 3 nc        2022-03-03      2377
 4 nc        2022-03-04      2646
 5 nc        2022-03-07      4230
 6 nc        2022-03-08       894
 7 nc        2022-03-09      1833
 8 nc        2022-03-10      1783
 9 nc        2022-03-11      1849
10 nc        2022-03-14      3130
# ℹ 12 more rows
…
An `epi_df` object, 93 x 6 with metadata:
* geo_type  = state
* time_type = day
* as_of     = 2024-01-01

# A tibble: 93 × 6
# Groups:   geo_value [3]
   geo_value time_value raw_cases      pop scaled_cases smoothed_scaled_cases
   <chr>     <date>         <dbl>    <dbl>        <dbl>                 <dbl>
 1 ca        2022-03-01      4310 39512223        10.9                   10.9
 2 ca        2022-03-02      7044 39512223        17.8                   14.4
 3 ca        2022-03-03      7509 39512223        19.0                   15.9
 4 ca        2022-03-04      3586 39512223         9.08                  14.2
 5 ca        2022-03-05      1438 39512223         3.64                  12.1
 6 ca        2022-03-06      6465 39512223        16.4                   12.8
 7 ca        2022-03-07      6690 39512223        16.9                   13.4
 8 ca        2022-03-08      3424 39512223         8.67                  12.8
 9 ca        2022-03-09      4591 39512223        11.6                   12.7
10 ca        2022-03-10      5359 39512223        13.6                   12.8
# ℹ 83 more rows
…
get_predictor_training_data(nchs_ca_past_archive, "mortality", 7, "mortality_lag7_realtime")

# A tibble: 36 × 3
   geo_value time_value mortality_lag7_realtime
   <chr>     <date>                       <dbl>
 1 ca        2020-12-06                      13
 2 ca        2021-02-28                      78
 3 ca        2021-03-07                      54
 4 ca        2021-03-14                      43
 5 ca        2021-03-21                      19
 6 ca        2021-03-28                      21
 7 ca        2021-04-04                      23
 8 ca        2021-04-11                      20
 9 ca        2021-04-18                      18
10 ca        2021-04-25                      20
# ℹ 26 more rows

The first value here is a version of \(Y_{\text{2020-11-30}}\) as it was reported in version 2020-12-06. We expect it to have similar characteristics as \(Y_{t - 7\text{ days}}\) as reported in version \(t\) for other values of \(t\).

Get multiple predictors

predictors <- predictor_descriptions |>
  pmap(function(varname, lag_days, predictor_name) {
    get_predictor_training_data(nchs_ca_past_archive, varname, lag_days, predictor_name)
  }) |>
  reduce(full_join, by = c("geo_value", "time_value"))
predictors

# A tibble: 50 × 4
   geo_value time_value mortality_lag14_realtime mortality_lag7_realtime
   <chr>     <date>                        <dbl>                   <dbl>
 1 ca        2020-12-06                       66                      13
 2 ca        2020-12-13                       13                      NA
 3 ca        2021-02-14                      557                      NA
 4 ca        2021-02-21                      474                      NA
 5 ca        2021-02-28                      478                      78
 6 ca        2021-03-07                      415                      54
 7 ca        2021-03-14                      282                      43
 8 ca        2021-03-21                      176                      19
 9 ca        2021-03-28                      164                      21
10 ca        2021-04-04                      117                      23
# ℹ 40 more rows
…
