MICOM EpiData Workshop 2025 – day1-afternoon
…
:::

get_predictor_training_data(nchs_ca_past_archive, "mortality", 7, "mortality_lag7_realtime")

# A tibble: 36 × 3
   geo_value time_value mortality_lag7_realtime
   <chr>     <date>                       <dbl>
 1 ca        2020-12-06                      13
 2 ca        2021-02-28                      78
 3 ca        2021-03-07                      54
 4 ca        2021-03-14                      43
 5 ca        2021-03-21                      19
 6 ca        2021-03-28                      21
 7 ca        2021-04-04                      23
 8 ca        2021-04-11                      20
 9 ca        2021-04-18                      18
10 ca        2021-04-25                      20
# ℹ 26 more rows

The first value here is a version of \(Y_{\text{2020-11-30}}\) as it was reported in version 2020-12-06. We expect it to have similar characteristics as \(Y_{t - 7\text{ days}}\) as reported in version \(t\) for other values of \(t\).

Get multiple predictors

predictors <- predictor_descriptions |>
  pmap(function(varname, lag_days, predictor_name) {
    get_predictor_training_data(nchs_ca_past_archive, varname, lag_days, predictor_name)
  }) |>
  reduce(full_join, by = c("geo_value", "time_value"))
predictors

# A tibble: 50 × 4
   geo_value time_value mortality_lag14_realtime mortality_lag7_realtime
   <chr>     <date>                        <dbl>                   <dbl>
 1 ca        2020-12-06                       66                      13
 2 ca        2020-12-13                       13                      NA
 3 ca        2021-02-14                      557                      NA
 4 ca        2021-02-21                      474                      NA
 5 ca        2021-02-28                      478                      78
 6 ca        2021-03-07                      415                      54
 7 ca        2021-03-14                      282                      43
 8 ca        2021-03-21                      176                      19
 9 ca        2021-03-28                      164                      21
10 ca        2021-04-04                      117                      23
# ℹ 40 more rows
…
