MICOM EpiData Workshop 2025 – day2-afternoon
…
arx_forecaster output

A forecast (point prediction + quantiles) for 28 days after the last available time value in the data ($predictions).

epi_arx$predictions

# A tibble: 56 × 5
   geo_value  .pred .pred_distn forecast_date target_date
   <chr>      <dbl>   <qtls(3)> <date>        <date>     
 1 ak        0.265      [0.265] 2021-04-01    2021-04-29 
 2 al        0.133      [0.133] 2021-04-01    2021-04-29 
 3 ar        0.141      [0.141] 2021-04-01    2021-04-29 
 4 as        0.0213    [0.0213] 2021-04-01    2021-04-29 
 5 az        0.149      [0.149] 2021-04-01    2021-04-29 
 6 ca        0.172      [0.172] 2021-04-01    2021-04-29 
 7 co        0.284      [0.284] 2021-04-01    2021-04-29 
 8 ct        0.418      [0.418] 2021-04-01    2021-04-29 
 9 dc        0.281      [0.281] 2021-04-01    2021-04-29 
10 de        0.414      [0.414] 2021-04-01    2021-04-29 
# ℹ 46 more rows
…
Not a great way to read the output, but the new column is version, which forecast_date is always before.

Predict with ARX (re-fitting on trailing window)

pred_arx |> filter(geo_value == "ca")

# A tibble: 98 × 8
   version    geo_value  .pred forecast_date target_date  `0.1`  `0.5` `0.9`
   <date>     <chr>      <dbl> <date>        <date>       <dbl>  <dbl> <dbl>
 1 2021-04-01 ca        0.191  2021-03-31    2021-04-28  0.108  0.191  0.374
 2 2021-04-08 ca        0.146  2021-04-07    2021-05-05  0.0703 0.146  0.303
 3 2021-04-15 ca        0.154  2021-04-14    2021-05-12  0.0742 0.154  0.316
 4 2021-04-22 ca        0.116  2021-04-21    2021-05-19  0.0498 0.116  0.257
 5 2021-04-29 ca        0.0968 2021-04-28    2021-05-26  0.0396 0.0968 0.227
 6 2021-05-06 ca        0.0999 2021-05-05    2021-06-02  0.0435 0.0999 0.230
 7 2021-05-13 ca        0.0936 2021-05-12    2021-06-09  0.0381 0.0936 0.220
 8 2021-05-20 ca        0.0726 2021-05-19    2021-06-16  0.0262 0.0726 0.187
 9 2021-05-27 ca        0.0648 2021-05-26    2021-06-23  0.0218 0.0648 0.174
10 2021-06-03 ca        0.0739 2021-06-02    2021-06-30  0.0266 0.0739 0.190
# ℹ 88 more rows
…
